Hallo Welt!
-----------------------------
Die Zählervariable hat den Wert: 0
Die Zahl 0 ist durch 3 teilbar
Die Zahl 0 ist gerade
-----------------------------
Die Zählervariable hat den Wert: 1
Die Zahl 1 ist nicht gerade
-----------------------------
Die Zählervariable hat den Wert: 2
Die Zahl 2 ist gerade
-----------------------------
Die Zählervariable hat den Wert: 3
Die Zahl 3 ist durch 3 teilbar
Die Zahl 3 ist nicht gerade
-----------------------------
Die Zählervariable hat den Wert: 4
Die Zahl 4 ist gerade
-----------------------------
Die Zählervariable hat den Wert: 5
Die Zahl 5 ist nicht gerade
-----------------------------
Die Zählervariable hat den Wert: 6
Die Zahl 6 ist durch 3 teilbar
Die Zahl 6 ist gerade
-----------------------------
Die Zählervariable hat den Wert: 7
Die Zahl 7 ist nicht gerade
-----------------------------
Die Zählervariable hat den Wert: 8
Die Zahl 8 ist gerade
-----------------------------
Die Zählervariable hat den Wert: 9
Die Zahl 9 ist durch 3 teilbar
Die Zahl 9 ist nicht gerade
-----------------------------
Die Zählervariable hat den Wert: 10
Die Zahl 10 ist gerade
-----------------------------
Die Zählervariable hat den Wert: 11
Die Zahl 11 ist nicht gerade
-----------------------------
Die Zählervariable hat den Wert: 12
Die Zahl 12 ist durch 3 teilbar
Die Zahl 12 ist gerade
-----------------------------
Die Zählervariable hat den Wert: 13
Die Zahl 13 ist nicht gerade
-----------------------------
Die Zählervariable hat den Wert: 14
Die Zahl 14 ist gerade
-----------------------------
Die Zählervariable hat den Wert: 15
Die Zahl 15 ist durch 3 teilbar
Die Zahl 15 ist nicht gerade
-----------------------------
Die Zählervariable hat den Wert: 16
Die Zahl 16 ist gerade
-----------------------------
Die Zählervariable hat den Wert: 17
Die Zahl 17 ist nicht gerade
-----------------------------
Die Zählervariable hat den Wert: 18
Die Zahl 18 ist durch 3 teilbar
Die Zahl 18 ist gerade
-----------------------------
Die Zählervariable hat den Wert: 19
Die Zahl 19 ist nicht gerade
-----------------------------
Die Zählervariable hat den Wert: 20
Die Zahl 20 ist gerade
-----------------------------
Die Zählervariable hat den Wert: 21
Die Zahl 21 ist durch 3 teilbar
Die Zahl 21 ist nicht gerade
-----------------------------
Die Zählervariable hat den Wert: 22
Die Zahl 22 ist gerade
-----------------------------
Die Zählervariable hat den Wert: 23
Die Zahl 23 ist nicht gerade
-----------------------------
Die Zählervariable hat den Wert: 24
Die Zahl 24 ist durch 3 teilbar
Die Zahl 24 ist gerade
-----------------------------
Die Zählervariable hat den Wert: 25
Die Zahl 25 ist nicht gerade
-----------------------------
Die Zählervariable hat den Wert: 26
Die Zahl 26 ist gerade
-----------------------------
Die Zählervariable hat den Wert: 27
Die Zahl 27 ist durch 3 teilbar
Die Zahl 27 ist nicht gerade
-----------------------------
Die Zählervariable hat den Wert: 28
Die Zahl 28 ist gerade
-----------------------------
Die Zählervariable hat den Wert: 29
Die Zahl 29 ist nicht gerade
-----------------------------
Die Zählervariable hat den Wert: 30
Die Zahl 30 ist durch 3 teilbar
Die Zahl 30 ist gerade
-----------------------------
