^D:\DEVELOPMENT\HSTEAM\FABI W\C++\PROG2_VORLESUNG_V01\PROG2_VORLESUNG_V01\SOURCE.CPP
D:\DEVELOPMENT\HSTEAM\FABI W\C++\PROG2_VORLESUNG_V01\PROG2_VORLESUNG_V01\DEBUG\VC141.PDB
D:\DEVELOPMENT\HSTEAM\FABI W\C++\PROG2_VORLESUNG_V01\PROG2_VORLESUNG_V01\DEBUG\VC141.IDB
D:\DEVELOPMENT\HSTEAM\FABI W\C++\PROG2_VORLESUNG_V01\PROG2_VORLESUNG_V01\DEBUG\SOURCE.OBJ
